# random 6x6 csheet = 0.0
9.371539904767462251e-04 1.685356213845820074e-06 6.612321423709078266e-07 9.705086016800097692e-03 9.074714627580241465e-04 3.953585205550518553e-08 7.631184852649159238e-09 9.880388632572229338e-03 9.337988734293604194e-04 3.102318892166959359e-06 1.003141855195932922e-02 4.640410797671348850e-07 2.190983238031529361e-06 1.265642014701306073e-04 9.843408292363382307e-04 3.630043938456827473e-05 1.349923925371716968e-04 6.425297215487437688e-06 1.030094892117320617e-02 1.008471196392072937e-02 1.067751942797298161e-03 1.010188266048204532e-02 1.039232776170350217e-02 1.013751356388872468e-02 4.484875267041757188e-08 5.681176100498428448e-05 8.880691123480556474e-05 5.950001127802621143e-05 1.181520621631223361e-04 5.821956433040457840e-06 7.379207678562510041e-05 9.450902488897318420e-04 9.750591655973617948e-04 1.001103267181593579e-02 1.032360088358533776e-03 3.449593426966704347e-09
4.144421432642106352e-05 2.464530149830566655e-05 3.432400904894833823e-06 1.124982783850356514e-04 4.378987433527840319e-05 8.026525048964790596e-07 6.778700078320082385e-06 1.152962658921740708e-04 3.063970421889831292e-05 2.183374540848795814e-05 1.196338710577213657e-04 1.575418252421490793e-05 2.657046093639022695e-05 1.650578142184663130e-05 6.134578586826781796e-06 1.824372948090676288e-05 1.621142058807561215e-05 7.759124590504025697e-06 1.438673481086372630e-04 1.621602667270064001e-04 2.735333256192926563e-05 9.240239910634992515e-05 2.224635680337310286e-04 6.198418466905489070e-05 1.324916897682352549e-05 3.678485835125483173e-05 1.304483418494593118e-05 4.534820034325614516e-05 2.817952814434767882e-05 2.122410558526240153e-05 3.680723798902004693e-05 4.864989660844033965e-05 1.100110960734979266e-05 9.650261070600390698e-05 5.235548385577915595e-05 7.906061071354032160e-06
5.529241506200615285e-05 8.418201756457165184e-05 2.594406149194969301e-05 1.146133898497531556e-04 8.831790947979688137e-05 5.245313337565332982e-05 7.200063273440385442e-05 1.193174743134859853e-04 3.787645258115905378e-05 9.184179606998716912e-05 1.243593328370275989e-04 6.726610135006712190e-05 8.714786573489428635e-06 1.233017007823365425e-05 4.896026969242501408e-06 1.161448808084949558e-05 1.317621654604748195e-05 7.942288965864274152e-06 1.524546708039712902e-04 1.551388345206601810e-04 5.599627889639244819e-05 1.628156600165349887e-04 1.560984990714940060e-04 1.528752747247696150e-04 9.850369823258868588e-06 1.528272977567261142e-05 3.449985535365707898e-06 1.257786340618382893e-05 1.639792305558511812e-05 8.844008065951734136e-06 6.096909035673757317e-05 8.936490329145815913e-05 2.836034693792256338e-05 1.153123419910843467e-04 9.334633164387174504e-05 5.710937599522379816e-05
